<?xml version="1.0" ?>
<sdf version="1.5">
  <world name="kitchen_world">

    <gui>
      <camera name="kitchen_camera">
	    <pose>-1 0.1 1.5 0 0.4 0</pose>
      </camera>
      <plugin name="VisWidget" filename="libVisWidget.so"/>
    </gui>

    <scene>
      <sky>
	<clouds>
	    <speed>12</speed>
	</clouds>
      </sky>
    </scene>

    <include>
      <uri>model://sun_vertical</uri>
    </include>

    <include>
      <uri>model://kitchen_floor</uri>
    </include>

    <include>
      <uri>model://kitchen_table</uri>
    </include>

    <include>
      <uri>model://pizza</uri>
      <name>Pizza</name>
      <pose>0.3 0.4 0.87 0 0 0</pose>
    </include>

    <include>
      <uri>model://pizza_board</uri>
      <name>PizzaBoard</name>
      <pose>0.3 0.4 0.86 0 0 0</pose>
    </include>

    <include>
      <uri>model://cheese_bowl</uri>
      <name>CheeseBowl</name>
      <pose>0.2 0.0 0.85 0.0 0 0</pose>
    </include>

    <include>
      <uri>model://champignon_bowl</uri>
      <name>ChampignonBowl</name>
      <pose>0.4 -0.1 0.85 0.0 0 0</pose>
    </include>

  </world>
</sdf>
